…
```{.r .cell-code}
shape_score <- tibble(
  you = c("X", "Y", "Z"),
  shape_score = 1:3
)
```


```{.r .cell-code}
d
```

```
# A tibble: 2,500 × 2
   opponent you  
   <chr>    <chr>
 1 A        Z    
 2 A        Z    
 3 C        Y    
 4 A        X    
 5 A        X    
 6 A        Z    
 7 C        X    
 8 A        X    
 9 C        Y    
10 A        Z    
# … with 2,490 more rows
```
…
